{
  "type": "service_account",
  "project_id": "ribw-d7c3f",
  "private_key_id": "1027d23806ff658df9ff4637e5818e199606a695",
  "private_key": "-----BEGIN PRIVATE KEY-----\nMIIEvgIBADANBgkqhkiG9w0BAQEFAASCBKgwggSkAgEAAoIBAQDIW5pzAWov2rO+\nO6qmajpzZ0g0W4QrYRcXRpCucpIULAGhAOMcyuOiykhwNvDpNtPEprUwwXJBD8R+\ngCZ2yB/w4vsCHGK7XUU8kmKUbtdWZWGju4sNm/YKKRTXUj5fbAQocRyZrstST/a+\n5l4Yy54gurS9r1ZnHAFMp4skpsgMhhoUZhdjFEmaKyD49r8zLVlPoB+DWQ+jYgEo\npvIxVKgWq2bFbkM0mI7IHaWRJtVfQNZ8aN0hmHDseojDCBmEgLL6/CbPSu3WCxei\nw0AZFQ51ZVROxZIJqSMGBeozJPofP1K7EWTAwBPRxx9xMGAu8BARCYuOqJRjzNbX\n7eCUWrfDAgMBAAECggEAARrsP60m0kvBCRAYMWHNn7xWnB9TG9AlyfWUL7onDyBt\nA9/W4N5Hoiq+eov7CTZJtcB7qGCwyiYVneMEE0yoTHJcExdn/gOWMa7XB12TJ4FY\nqAgNTM5q7YRrfoKQIIOehECXeUuLCJGzWTs5Eqbw4NpWy+MPNXNkmHEmJdYbrWH/\nfDJitGxMPU7oi/Lhp8lNA2ohLA/TugIwxZ9j3CCOtMOu4OttAWk/h2nvWi38CZAM\nVReWMvGddeKJyHWABRsPTUXCiGjba0qeyQ20RvrIg2g+JYUByhs2FtJJOmEggmRw\nGxneDFd9rRKLU9oX27j62s7fHkVR4/v1LSTmuh+7/QKBgQDj8lqN3DtJaD4FWi4C\nQ+5dMdXIYrhqwLGauOUEQsBblvYJjGvffhX3lpMWRUGM/aOfxLv0FbTQIx4aDz33\nRUAXyqE7ex7vvEmqXKq8UUBJ5Xaefu9BNMnH8qAxZnHTAuRgBxABir4ruimY9MSk\nRQSc27MIghXv2kCd9xb9nx0XTQKBgQDhBAowycRZWR/YF5ONXnVNDFbZSx4jaJcP\n0bkW/jel2m5yZQ3F6JwgdkIjky5sdsxhdjpWFN9yZu18g28ma89dspzqgCfda4Ut\nxTfLLLN9Qdp9U8zkDHZo3Jpx3cxfCrBIXOuu1gYkmFgySdfvCCGRzzPdPSApGh6y\nnBfGQnUjTwKBgQC23daHuAZX/ajD4nTGnHi9ix1WhNwtyCizV2Fi6aon0BPR1TU1\nNpGo7sNROn47/b8mjU27oy5LS+D6RwAPPx8L9yMh9MP8z7DJW04dhZFttwhSXsLS\nLOcz4RFikC0Ae3F7GC9fDU9DBTYZ30NiBXyN2jLmwHWY1h7Am1l2Xg+YgQKBgQDF\nzXJT3xpe3Mz0fg00ieOd3on+LF2LDOc2fcsyXjl276SFpTXNUyTkGHEdqsV1jZ0u\n0+qGP4UJoVeFTFkKMl2w5VGxhwUETP9e8+6PCXWjV5+E6oTDt/zjQ4H1NN/ycIf0\npNJ9+CCgTNfDJUzQEJrJ/ZZ/FrvNxetUYYk4vLUSWwKBgCM9H3qIw8ZmxQZ/vMO5\nNLoQKcxRJEDw4HegFAek7SWR+Bnvcw3GqzSxfNbt4hjE8Fufn/ptt8l+iQG7s0p2\npDBfHyW5ssOyJphGRuoPnNv3RvJeIxuENQSaDvJOoWFise7qGZYZJOF/6+Z05ksQ\nA39uA/vazy1lNVDQBqLq2xsg\n-----END PRIVATE KEY-----\n",
  "client_email": "firebase-adminsdk-tjyf9@ribw-d7c3f.iam.gserviceaccount.com",
  "client_id": "112403471140657844695",
  "auth_uri": "https://accounts.google.com/o/oauth2/auth",
  "token_uri": "https://oauth2.googleapis.com/token",
  "auth_provider_x509_cert_url": "https://www.googleapis.com/oauth2/v1/certs",
  "client_x509_cert_url": "https://www.googleapis.com/robot/v1/metadata/x509/firebase-adminsdk-tjyf9%40ribw-d7c3f.iam.gserviceaccount.com"
}
